[
	{
		"id": 0,
		"sentTime": 1626120638018,
		"returnTime": 1626120655537,
		"data": {
			"status": "success",
			"data": {
				"deviceAddres": "0xA6cf2067A552E3eBBaA23002425d61936333813D"
			}
		}
	},
	{
		"id": 1,
		"sentTime": 1626120638018,
		"returnTime": 1626120654471,
		"data": {
			"status": "success",
			"data": {
				"deviceAddres": "0xA6cf2067A552E3eBBaA23002425d61936333813D"
			}
		}
	},
	{
		"id": 2,
		"sentTime": 1626120638018,
		"returnTime": 1626120650674,
		"data": {
			"status": "success",
			"data": {
				"deviceAddres": "0xA6cf2067A552E3eBBaA23002425d61936333813D"
			}
		}
	},
	{
		"id": 3,
		"sentTime": 1626120638018,
		"returnTime": 1626120645318,
		"data": {
			"status": "success",
			"data": {
				"deviceAddres": "0xA6cf2067A552E3eBBaA23002425d61936333813D"
			}
		}
	},
	{
		"id": 4,
		"sentTime": 1626120638018,
		"returnTime": 1626120644876,
		"data": {
			"status": "success",
			"data": {
				"deviceAddres": "0xA6cf2067A552E3eBBaA23002425d61936333813D"
			}
		}
	},
	{
		"id": 5,
		"sentTime": 1626120638018,
		"returnTime": 1626120644257,
		"data": {
			"status": "success",
			"data": {
				"deviceAddres": "0xA6cf2067A552E3eBBaA23002425d61936333813D"
			}
		}
	},
	{
		"id": 6,
		"sentTime": 1626120638018,
		"returnTime": 1626120644026,
		"data": {
			"status": "success",
			"data": {
				"deviceAddres": "0xA6cf2067A552E3eBBaA23002425d61936333813D"
			}
		}
	},
	{
		"id": 7,
		"sentTime": 1626120638019,
		"returnTime": 1626120644024,
		"data": {
			"status": "success",
			"data": {
				"deviceAddres": "0xA6cf2067A552E3eBBaA23002425d61936333813D"
			}
		}
	},
	{
		"id": 8,
		"sentTime": 1626120638019,
		"returnTime": 1626120644029,
		"data": {
			"status": "success",
			"data": {
				"deviceAddres": "0xA6cf2067A552E3eBBaA23002425d61936333813D"
			}
		}
	},
	{
		"id": 9,
		"sentTime": 1626120638019,
		"returnTime": 1626120645393,
		"data": {
			"status": "success",
			"data": {
				"deviceAddres": "0xA6cf2067A552E3eBBaA23002425d61936333813D"
			}
		}
	},
	{
		"id": 10,
		"sentTime": 1626120638019,
		"returnTime": 1626120644031,
		"data": {
			"status": "success",
			"data": {
				"deviceAddres": "0xA6cf2067A552E3eBBaA23002425d61936333813D"
			}
		}
	},
	{
		"id": 11,
		"sentTime": 1626120638019,
		"returnTime": 1626120644027,
		"data": {
			"status": "success",
			"data": {
				"deviceAddres": "0xA6cf2067A552E3eBBaA23002425d61936333813D"
			}
		}
	},
	{
		"id": 12,
		"sentTime": 1626120638019,
		"returnTime": 1626120644031,
		"data": {
			"status": "success",
			"data": {
				"deviceAddres": "0xA6cf2067A552E3eBBaA23002425d61936333813D"
			}
		}
	},
	{
		"id": 13,
		"sentTime": 1626120638019,
		"returnTime": 1626120644029,
		"data": {
			"status": "success",
			"data": {
				"deviceAddres": "0xA6cf2067A552E3eBBaA23002425d61936333813D"
			}
		}
	},
	{
		"id": 14,
		"sentTime": 1626120638019,
		"returnTime": 1626120644028,
		"data": {
			"status": "success",
			"data": {
				"deviceAddres": "0xA6cf2067A552E3eBBaA23002425d61936333813D"
			}
		}
	},
	{
		"id": 15,
		"sentTime": 1626120638019,
		"returnTime": 1626120644444,
		"data": {
			"status": "success",
			"data": {
				"deviceAddres": "0xA6cf2067A552E3eBBaA23002425d61936333813D"
			}
		}
	},
	{
		"id": 16,
		"sentTime": 1626120638019,
		"returnTime": 1626120644025,
		"data": {
			"status": "success",
			"data": {
				"deviceAddres": "0xA6cf2067A552E3eBBaA23002425d61936333813D"
			}
		}
	},
	{
		"id": 17,
		"sentTime": 1626120638019,
		"returnTime": 1626120644030,
		"data": {
			"status": "success",
			"data": {
				"deviceAddres": "0xA6cf2067A552E3eBBaA23002425d61936333813D"
			}
		}
	},
	{
		"id": 18,
		"sentTime": 1626120638019,
		"returnTime": 1626120644032,
		"data": {
			"status": "success",
			"data": {
				"deviceAddres": "0xA6cf2067A552E3eBBaA23002425d61936333813D"
			}
		}
	},
	{
		"id": 19,
		"sentTime": 1626120638019,
		"returnTime": 1626120644028,
		"data": {
			"status": "success",
			"data": {
				"deviceAddres": "0xA6cf2067A552E3eBBaA23002425d61936333813D"
			}
		}
	},
	{
		"id": 20,
		"sentTime": 1626120638019,
		"returnTime": 1626120644023,
		"data": {
			"status": "success",
			"data": {
				"deviceAddres": "0xA6cf2067A552E3eBBaA23002425d61936333813D"
			}
		}
	},
	{
		"id": 21,
		"sentTime": 1626120638019,
		"returnTime": 1626120644025,
		"data": {
			"status": "success",
			"data": {
				"deviceAddres": "0xA6cf2067A552E3eBBaA23002425d61936333813D"
			}
		}
	},
	{
		"id": 22,
		"sentTime": 1626120638019,
		"returnTime": 1626120644889,
		"data": {
			"status": "success",
			"data": {
				"deviceAddres": "0xA6cf2067A552E3eBBaA23002425d61936333813D"
			}
		}
	},
	{
		"id": 23,
		"sentTime": 1626120638019,
		"returnTime": 1626120644027,
		"data": {
			"status": "success",
			"data": {
				"deviceAddres": "0xA6cf2067A552E3eBBaA23002425d61936333813D"
			}
		}
	},
	{
		"id": 24,
		"sentTime": 1626120638019,
		"returnTime": 1626120644430,
		"data": {
			"status": "success",
			"data": {
				"deviceAddres": "0xA6cf2067A552E3eBBaA23002425d61936333813D"
			}
		}
	},
	{
		"id": 25,
		"sentTime": 1626120638019,
		"returnTime": 1626120644025,
		"data": {
			"status": "success",
			"data": {
				"deviceAddres": "0xA6cf2067A552E3eBBaA23002425d61936333813D"
			}
		}
	},
	{
		"id": 26,
		"sentTime": 1626120638019,
		"returnTime": 1626120648408,
		"data": {
			"status": "success",
			"data": {
				"deviceAddres": "0xA6cf2067A552E3eBBaA23002425d61936333813D"
			}
		}
	},
	{
		"id": 27,
		"sentTime": 1626120638019,
		"returnTime": 1626120644025,
		"data": {
			"status": "success",
			"data": {
				"deviceAddres": "0xA6cf2067A552E3eBBaA23002425d61936333813D"
			}
		}
	},
	{
		"id": 28,
		"sentTime": 1626120638019,
		"returnTime": 1626120644893,
		"data": {
			"status": "success",
			"data": {
				"deviceAddres": "0xA6cf2067A552E3eBBaA23002425d61936333813D"
			}
		}
	},
	{
		"id": 29,
		"sentTime": 1626120638019,
		"returnTime": 1626120644026,
		"data": {
			"status": "success",
			"data": {
				"deviceAddres": "0xA6cf2067A552E3eBBaA23002425d61936333813D"
			}
		}
	},
	{
		"id": 30,
		"sentTime": 1626120638019,
		"returnTime": 1626120644025,
		"data": {
			"status": "success",
			"data": {
				"deviceAddres": "0xA6cf2067A552E3eBBaA23002425d61936333813D"
			}
		}
	},
	{
		"id": 31,
		"sentTime": 1626120638019,
		"returnTime": 1626120644047,
		"data": {
			"status": "success",
			"data": {
				"deviceAddres": "0xA6cf2067A552E3eBBaA23002425d61936333813D"
			}
		}
	},
	{
		"id": 32,
		"sentTime": 1626120638020,
		"returnTime": 1626120644890,
		"data": {
			"status": "success",
			"data": {
				"deviceAddres": "0xA6cf2067A552E3eBBaA23002425d61936333813D"
			}
		}
	},
	{
		"id": 33,
		"sentTime": 1626120638020,
		"returnTime": 1626120644024,
		"data": {
			"status": "success",
			"data": {
				"deviceAddres": "0xA6cf2067A552E3eBBaA23002425d61936333813D"
			}
		}
	},
	{
		"id": 34,
		"sentTime": 1626120638020,
		"returnTime": 1626120692975,
		"data": {
			"status": "success",
			"data": {
				"deviceAddres": "0xA6cf2067A552E3eBBaA23002425d61936333813D"
			}
		}
	},
	{
		"id": 35,
		"sentTime": 1626120638020,
		"returnTime": 1626120693195,
		"data": {
			"status": "success",
			"data": {
				"deviceAddres": "0xA6cf2067A552E3eBBaA23002425d61936333813D"
			}
		}
	},
	{
		"id": 36,
		"sentTime": 1626120638020,
		"returnTime": 1626120694546,
		"data": {
			"status": "success",
			"data": {
				"deviceAddres": "0xA6cf2067A552E3eBBaA23002425d61936333813D"
			}
		}
	},
	{
		"id": 37,
		"sentTime": 1626120638020,
		"returnTime": 1626120694540,
		"data": {
			"status": "success",
			"data": {
				"deviceAddres": "0xA6cf2067A552E3eBBaA23002425d61936333813D"
			}
		}
	},
	{
		"id": 38,
		"sentTime": 1626120638020,
		"returnTime": 1626120694475,
		"data": {
			"status": "success",
			"data": {
				"deviceAddres": "0xA6cf2067A552E3eBBaA23002425d61936333813D"
			}
		}
	},
	{
		"id": 39,
		"sentTime": 1626120638020,
		"returnTime": 1626120694502,
		"data": {
			"status": "success",
			"data": {
				"deviceAddres": "0xA6cf2067A552E3eBBaA23002425d61936333813D"
			}
		}
	},
	{
		"id": 40,
		"sentTime": 1626120638020,
		"returnTime": 1626120692887,
		"data": {
			"status": "success",
			"data": {
				"deviceAddres": "0xA6cf2067A552E3eBBaA23002425d61936333813D"
			}
		}
	},
	{
		"id": 41,
		"sentTime": 1626120638020,
		"returnTime": 1626120692915,
		"data": {
			"status": "success",
			"data": {
				"deviceAddres": "0xA6cf2067A552E3eBBaA23002425d61936333813D"
			}
		}
	},
	{
		"id": 42,
		"sentTime": 1626120638020,
		"returnTime": 1626120694523,
		"data": {
			"status": "success",
			"data": {
				"deviceAddres": "0xA6cf2067A552E3eBBaA23002425d61936333813D"
			}
		}
	},
	{
		"id": 43,
		"sentTime": 1626120638020,
		"returnTime": 1626120692842,
		"data": {
			"status": "success",
			"data": {
				"deviceAddres": "0xA6cf2067A552E3eBBaA23002425d61936333813D"
			}
		}
	},
	{
		"id": 44,
		"sentTime": 1626120638020,
		"returnTime": 1626120692973,
		"data": {
			"status": "success",
			"data": {
				"deviceAddres": "0xA6cf2067A552E3eBBaA23002425d61936333813D"
			}
		}
	},
	{
		"id": 45,
		"sentTime": 1626120638020,
		"returnTime": 1626120692893,
		"data": {
			"status": "success",
			"data": {
				"deviceAddres": "0xA6cf2067A552E3eBBaA23002425d61936333813D"
			}
		}
	},
	{
		"id": 46,
		"sentTime": 1626120638020,
		"returnTime": 1626120692957,
		"data": {
			"status": "success",
			"data": {
				"deviceAddres": "0xA6cf2067A552E3eBBaA23002425d61936333813D"
			}
		}
	},
	{
		"id": 47,
		"sentTime": 1626120638020,
		"returnTime": 1626120693238,
		"data": {
			"status": "success",
			"data": {
				"deviceAddres": "0xA6cf2067A552E3eBBaA23002425d61936333813D"
			}
		}
	},
	{
		"id": 48,
		"sentTime": 1626120638020,
		"returnTime": 1626120693215,
		"data": {
			"status": "success",
			"data": {
				"deviceAddres": "0xA6cf2067A552E3eBBaA23002425d61936333813D"
			}
		}
	},
	{
		"id": 49,
		"sentTime": 1626120638020,
		"returnTime": 1626120692948,
		"data": {
			"status": "success",
			"data": {
				"deviceAddres": "0xA6cf2067A552E3eBBaA23002425d61936333813D"
			}
		}
	},
	{
		"id": 50,
		"sentTime": 1626120638020,
		"returnTime": 1626120692945,
		"data": {
			"status": "success",
			"data": {
				"deviceAddres": "0xA6cf2067A552E3eBBaA23002425d61936333813D"
			}
		}
	},
	{
		"id": 51,
		"sentTime": 1626120638020,
		"returnTime": 1626120692859,
		"data": {
			"status": "success",
			"data": {
				"deviceAddres": "0xA6cf2067A552E3eBBaA23002425d61936333813D"
			}
		}
	},
	{
		"id": 52,
		"sentTime": 1626120638020,
		"returnTime": 1626120692852,
		"data": {
			"status": "success",
			"data": {
				"deviceAddres": "0xA6cf2067A552E3eBBaA23002425d61936333813D"
			}
		}
	},
	{
		"id": 53,
		"sentTime": 1626120638020,
		"returnTime": 1626120692922,
		"data": {
			"status": "success",
			"data": {
				"deviceAddres": "0xA6cf2067A552E3eBBaA23002425d61936333813D"
			}
		}
	},
	{
		"id": 54,
		"sentTime": 1626120638021,
		"returnTime": 1626120694544,
		"data": {
			"status": "success",
			"data": {
				"deviceAddres": "0xA6cf2067A552E3eBBaA23002425d61936333813D"
			}
		}
	},
	{
		"id": 55,
		"sentTime": 1626120638021,
		"returnTime": 1626120694517,
		"data": {
			"status": "success",
			"data": {
				"deviceAddres": "0xA6cf2067A552E3eBBaA23002425d61936333813D"
			}
		}
	},
	{
		"id": 56,
		"sentTime": 1626120638021,
		"returnTime": 1626120694511,
		"data": {
			"status": "success",
			"data": {
				"deviceAddres": "0xA6cf2067A552E3eBBaA23002425d61936333813D"
			}
		}
	},
	{
		"id": 57,
		"sentTime": 1626120638021,
		"returnTime": 1626120693003,
		"data": {
			"status": "success",
			"data": {
				"deviceAddres": "0xA6cf2067A552E3eBBaA23002425d61936333813D"
			}
		}
	},
	{
		"id": 58,
		"sentTime": 1626120638021,
		"returnTime": 1626120693233,
		"data": {
			"status": "success",
			"data": {
				"deviceAddres": "0xA6cf2067A552E3eBBaA23002425d61936333813D"
			}
		}
	},
	{
		"id": 59,
		"sentTime": 1626120638021,
		"returnTime": 1626120694490,
		"data": {
			"status": "success",
			"data": {
				"deviceAddres": "0xA6cf2067A552E3eBBaA23002425d61936333813D"
			}
		}
	},
	{
		"id": 60,
		"sentTime": 1626120638021,
		"returnTime": 1626120694553,
		"data": {
			"status": "success",
			"data": {
				"deviceAddres": "0xA6cf2067A552E3eBBaA23002425d61936333813D"
			}
		}
	},
	{
		"id": 61,
		"sentTime": 1626120638021,
		"returnTime": 1626120694487,
		"data": {
			"status": "success",
			"data": {
				"deviceAddres": "0xA6cf2067A552E3eBBaA23002425d61936333813D"
			}
		}
	},
	{
		"id": 62,
		"sentTime": 1626120638021,
		"returnTime": 1626120694509,
		"data": {
			"status": "success",
			"data": {
				"deviceAddres": "0xA6cf2067A552E3eBBaA23002425d61936333813D"
			}
		}
	},
	{
		"id": 63,
		"sentTime": 1626120638021,
		"returnTime": 1626120693194,
		"data": {
			"status": "success",
			"data": {
				"deviceAddres": "0xA6cf2067A552E3eBBaA23002425d61936333813D"
			}
		}
	},
	{
		"id": 64,
		"sentTime": 1626120638021,
		"returnTime": 1626120694527,
		"data": {
			"status": "success",
			"data": {
				"deviceAddres": "0xA6cf2067A552E3eBBaA23002425d61936333813D"
			}
		}
	},
	{
		"id": 65,
		"sentTime": 1626120638021,
		"returnTime": 1626120692978,
		"data": {
			"status": "success",
			"data": {
				"deviceAddres": "0xA6cf2067A552E3eBBaA23002425d61936333813D"
			}
		}
	},
	{
		"id": 66,
		"sentTime": 1626120638021,
		"returnTime": 1626120693224,
		"data": {
			"status": "success",
			"data": {
				"deviceAddres": "0xA6cf2067A552E3eBBaA23002425d61936333813D"
			}
		}
	},
	{
		"id": 67,
		"sentTime": 1626120638021,
		"returnTime": 1626120692926,
		"data": {
			"status": "success",
			"data": {
				"deviceAddres": "0xA6cf2067A552E3eBBaA23002425d61936333813D"
			}
		}
	},
	{
		"id": 68,
		"sentTime": 1626120638021,
		"returnTime": 1626120692937,
		"data": {
			"status": "success",
			"data": {
				"deviceAddres": "0xA6cf2067A552E3eBBaA23002425d61936333813D"
			}
		}
	},
	{
		"id": 69,
		"sentTime": 1626120638021,
		"returnTime": 1626120692976,
		"data": {
			"status": "success",
			"data": {
				"deviceAddres": "0xA6cf2067A552E3eBBaA23002425d61936333813D"
			}
		}
	},
	{
		"id": 70,
		"sentTime": 1626120638021,
		"returnTime": 1626120694554,
		"data": {
			"status": "success",
			"data": {
				"deviceAddres": "0xA6cf2067A552E3eBBaA23002425d61936333813D"
			}
		}
	},
	{
		"id": 71,
		"sentTime": 1626120638021,
		"returnTime": 1626120692895,
		"data": {
			"status": "success",
			"data": {
				"deviceAddres": "0xA6cf2067A552E3eBBaA23002425d61936333813D"
			}
		}
	},
	{
		"id": 72,
		"sentTime": 1626120638021,
		"returnTime": 1626120694486,
		"data": {
			"status": "success",
			"data": {
				"deviceAddres": "0xA6cf2067A552E3eBBaA23002425d61936333813D"
			}
		}
	},
	{
		"id": 73,
		"sentTime": 1626120638021,
		"returnTime": 1626120692905,
		"data": {
			"status": "success",
			"data": {
				"deviceAddres": "0xA6cf2067A552E3eBBaA23002425d61936333813D"
			}
		}
	},
	{
		"id": 74,
		"sentTime": 1626120638021,
		"returnTime": 1626120692890,
		"data": {
			"status": "success",
			"data": {
				"deviceAddres": "0xA6cf2067A552E3eBBaA23002425d61936333813D"
			}
		}
	},
	{
		"id": 75,
		"sentTime": 1626120638021,
		"returnTime": 1626120692930,
		"data": {
			"status": "success",
			"data": {
				"deviceAddres": "0xA6cf2067A552E3eBBaA23002425d61936333813D"
			}
		}
	},
	{
		"id": 76,
		"sentTime": 1626120638021,
		"returnTime": 1626120694506,
		"data": {
			"status": "success",
			"data": {
				"deviceAddres": "0xA6cf2067A552E3eBBaA23002425d61936333813D"
			}
		}
	},
	{
		"id": 77,
		"sentTime": 1626120638022,
		"returnTime": 1626120692947,
		"data": {
			"status": "success",
			"data": {
				"deviceAddres": "0xA6cf2067A552E3eBBaA23002425d61936333813D"
			}
		}
	},
	{
		"id": 78,
		"sentTime": 1626120638022,
		"returnTime": 1626120694475,
		"data": {
			"status": "success",
			"data": {
				"deviceAddres": "0xA6cf2067A552E3eBBaA23002425d61936333813D"
			}
		}
	},
	{
		"id": 79,
		"sentTime": 1626120638022,
		"returnTime": 1626120694482,
		"data": {
			"status": "success",
			"data": {
				"deviceAddres": "0xA6cf2067A552E3eBBaA23002425d61936333813D"
			}
		}
	},
	{
		"id": 80,
		"sentTime": 1626120638022,
		"returnTime": 1626120694464,
		"data": {
			"status": "success",
			"data": {
				"deviceAddres": "0xA6cf2067A552E3eBBaA23002425d61936333813D"
			}
		}
	},
	{
		"id": 81,
		"sentTime": 1626120638022,
		"returnTime": 1626120694528,
		"data": {
			"status": "success",
			"data": {
				"deviceAddres": "0xA6cf2067A552E3eBBaA23002425d61936333813D"
			}
		}
	},
	{
		"id": 82,
		"sentTime": 1626120638022,
		"returnTime": 1626120694498,
		"data": {
			"status": "success",
			"data": {
				"deviceAddres": "0xA6cf2067A552E3eBBaA23002425d61936333813D"
			}
		}
	},
	{
		"id": 83,
		"sentTime": 1626120638022,
		"returnTime": 1626120694521,
		"data": {
			"status": "success",
			"data": {
				"deviceAddres": "0xA6cf2067A552E3eBBaA23002425d61936333813D"
			}
		}
	},
	{
		"id": 84,
		"sentTime": 1626120638022,
		"returnTime": 1626120694513,
		"data": {
			"status": "success",
			"data": {
				"deviceAddres": "0xA6cf2067A552E3eBBaA23002425d61936333813D"
			}
		}
	},
	{
		"id": 85,
		"sentTime": 1626120638022,
		"returnTime": 1626120694550,
		"data": {
			"status": "success",
			"data": {
				"deviceAddres": "0xA6cf2067A552E3eBBaA23002425d61936333813D"
			}
		}
	},
	{
		"id": 86,
		"sentTime": 1626120638022,
		"returnTime": 1626120692977,
		"data": {
			"status": "success",
			"data": {
				"deviceAddres": "0xA6cf2067A552E3eBBaA23002425d61936333813D"
			}
		}
	},
	{
		"id": 87,
		"sentTime": 1626120638022,
		"returnTime": 1626120694542,
		"data": {
			"status": "success",
			"data": {
				"deviceAddres": "0xA6cf2067A552E3eBBaA23002425d61936333813D"
			}
		}
	},
	{
		"id": 88,
		"sentTime": 1626120638022,
		"returnTime": 1626120694488,
		"data": {
			"status": "success",
			"data": {
				"deviceAddres": "0xA6cf2067A552E3eBBaA23002425d61936333813D"
			}
		}
	},
	{
		"id": 89,
		"sentTime": 1626120638022,
		"returnTime": 1626120694478,
		"data": {
			"status": "success",
			"data": {
				"deviceAddres": "0xA6cf2067A552E3eBBaA23002425d61936333813D"
			}
		}
	},
	{
		"id": 90,
		"sentTime": 1626120638022,
		"returnTime": 1626120693203,
		"data": {
			"status": "success",
			"data": {
				"deviceAddres": "0xA6cf2067A552E3eBBaA23002425d61936333813D"
			}
		}
	},
	{
		"id": 91,
		"sentTime": 1626120638023,
		"returnTime": 1626120693236,
		"data": {
			"status": "success",
			"data": {
				"deviceAddres": "0xA6cf2067A552E3eBBaA23002425d61936333813D"
			}
		}
	},
	{
		"id": 92,
		"sentTime": 1626120638023,
		"returnTime": 1626120694556,
		"data": {
			"status": "success",
			"data": {
				"deviceAddres": "0xA6cf2067A552E3eBBaA23002425d61936333813D"
			}
		}
	},
	{
		"id": 93,
		"sentTime": 1626120638023,
		"returnTime": 1626120694538,
		"data": {
			"status": "success",
			"data": {
				"deviceAddres": "0xA6cf2067A552E3eBBaA23002425d61936333813D"
			}
		}
	},
	{
		"id": 94,
		"sentTime": 1626120638023,
		"returnTime": 1626120693231,
		"data": {
			"status": "success",
			"data": {
				"deviceAddres": "0xA6cf2067A552E3eBBaA23002425d61936333813D"
			}
		}
	},
	{
		"id": 95,
		"sentTime": 1626120638023,
		"returnTime": 1626120693208,
		"data": {
			"status": "success",
			"data": {
				"deviceAddres": "0xA6cf2067A552E3eBBaA23002425d61936333813D"
			}
		}
	},
	{
		"id": 96,
		"sentTime": 1626120638023,
		"returnTime": 1626120694531,
		"data": {
			"status": "success",
			"data": {
				"deviceAddres": "0xA6cf2067A552E3eBBaA23002425d61936333813D"
			}
		}
	},
	{
		"id": 97,
		"sentTime": 1626120638023,
		"returnTime": 1626120692975,
		"data": {
			"status": "success",
			"data": {
				"deviceAddres": "0xA6cf2067A552E3eBBaA23002425d61936333813D"
			}
		}
	},
	{
		"id": 98,
		"sentTime": 1626120638023,
		"returnTime": 1626120692956,
		"data": {
			"status": "success",
			"data": {
				"deviceAddres": "0xA6cf2067A552E3eBBaA23002425d61936333813D"
			}
		}
	},
	{
		"id": 99,
		"sentTime": 1626120638023,
		"returnTime": 1626120694525,
		"data": {
			"status": "success",
			"data": {
				"deviceAddres": "0xA6cf2067A552E3eBBaA23002425d61936333813D"
			}
		}
	},
	{
		"id": 100,
		"sentTime": 1626120638023,
		"returnTime": 1626120693220,
		"data": {
			"status": "success",
			"data": {
				"deviceAddres": "0xA6cf2067A552E3eBBaA23002425d61936333813D"
			}
		}
	},
	{
		"id": 101,
		"sentTime": 1626120638023,
		"returnTime": 1626120694475,
		"data": {
			"status": "success",
			"data": {
				"deviceAddres": "0xA6cf2067A552E3eBBaA23002425d61936333813D"
			}
		}
	},
	{
		"id": 102,
		"sentTime": 1626120638023,
		"returnTime": 1626120694545,
		"data": {
			"status": "success",
			"data": {
				"deviceAddres": "0xA6cf2067A552E3eBBaA23002425d61936333813D"
			}
		}
	},
	{
		"id": 103,
		"sentTime": 1626120638023,
		"returnTime": 1626120692961,
		"data": {
			"status": "success",
			"data": {
				"deviceAddres": "0xA6cf2067A552E3eBBaA23002425d61936333813D"
			}
		}
	},
	{
		"id": 104,
		"sentTime": 1626120638023,
		"returnTime": 1626120692906,
		"data": {
			"status": "success",
			"data": {
				"deviceAddres": "0xA6cf2067A552E3eBBaA23002425d61936333813D"
			}
		}
	},
	{
		"id": 105,
		"sentTime": 1626120638023,
		"returnTime": 1626120694534,
		"data": {
			"status": "success",
			"data": {
				"deviceAddres": "0xA6cf2067A552E3eBBaA23002425d61936333813D"
			}
		}
	},
	{
		"id": 106,
		"sentTime": 1626120638023,
		"returnTime": 1626120693222,
		"data": {
			"status": "success",
			"data": {
				"deviceAddres": "0xA6cf2067A552E3eBBaA23002425d61936333813D"
			}
		}
	},
	{
		"id": 107,
		"sentTime": 1626120638023,
		"returnTime": 1626120692931,
		"data": {
			"status": "success",
			"data": {
				"deviceAddres": "0xA6cf2067A552E3eBBaA23002425d61936333813D"
			}
		}
	},
	{
		"id": 108,
		"sentTime": 1626120638023,
		"returnTime": 1626120694492,
		"data": {
			"status": "success",
			"data": {
				"deviceAddres": "0xA6cf2067A552E3eBBaA23002425d61936333813D"
			}
		}
	},
	{
		"id": 109,
		"sentTime": 1626120638023,
		"returnTime": 1626120692955,
		"data": {
			"status": "success",
			"data": {
				"deviceAddres": "0xA6cf2067A552E3eBBaA23002425d61936333813D"
			}
		}
	},
	{
		"id": 110,
		"sentTime": 1626120638023,
		"returnTime": 1626120694483,
		"data": {
			"status": "success",
			"data": {
				"deviceAddres": "0xA6cf2067A552E3eBBaA23002425d61936333813D"
			}
		}
	},
	{
		"id": 111,
		"sentTime": 1626120638023,
		"returnTime": 1626120694485,
		"data": {
			"status": "success",
			"data": {
				"deviceAddres": "0xA6cf2067A552E3eBBaA23002425d61936333813D"
			}
		}
	},
	{
		"id": 112,
		"sentTime": 1626120638023,
		"returnTime": 1626120694555,
		"data": {
			"status": "success",
			"data": {
				"deviceAddres": "0xA6cf2067A552E3eBBaA23002425d61936333813D"
			}
		}
	},
	{
		"id": 113,
		"sentTime": 1626120638023,
		"returnTime": 1626120694491,
		"data": {
			"status": "success",
			"data": {
				"deviceAddres": "0xA6cf2067A552E3eBBaA23002425d61936333813D"
			}
		}
	},
	{
		"id": 114,
		"sentTime": 1626120638023,
		"returnTime": 1626120694508,
		"data": {
			"status": "success",
			"data": {
				"deviceAddres": "0xA6cf2067A552E3eBBaA23002425d61936333813D"
			}
		}
	},
	{
		"id": 115,
		"sentTime": 1626120638023,
		"returnTime": 1626120692946,
		"data": {
			"status": "success",
			"data": {
				"deviceAddres": "0xA6cf2067A552E3eBBaA23002425d61936333813D"
			}
		}
	},
	{
		"id": 116,
		"sentTime": 1626120638023,
		"returnTime": 1626120694475,
		"data": {
			"status": "success",
			"data": {
				"deviceAddres": "0xA6cf2067A552E3eBBaA23002425d61936333813D"
			}
		}
	},
	{
		"id": 117,
		"sentTime": 1626120638023,
		"returnTime": 1626120694539,
		"data": {
			"status": "success",
			"data": {
				"deviceAddres": "0xA6cf2067A552E3eBBaA23002425d61936333813D"
			}
		}
	},
	{
		"id": 118,
		"sentTime": 1626120638023,
		"returnTime": 1626120692878,
		"data": {
			"status": "success",
			"data": {
				"deviceAddres": "0xA6cf2067A552E3eBBaA23002425d61936333813D"
			}
		}
	},
	{
		"id": 119,
		"sentTime": 1626120638023,
		"returnTime": 1626120694549,
		"data": {
			"status": "success",
			"data": {
				"deviceAddres": "0xA6cf2067A552E3eBBaA23002425d61936333813D"
			}
		}
	},
	{
		"id": 120,
		"sentTime": 1626120638023,
		"returnTime": 1626120692852,
		"data": {
			"status": "success",
			"data": {
				"deviceAddres": "0xA6cf2067A552E3eBBaA23002425d61936333813D"
			}
		}
	},
	{
		"id": 121,
		"sentTime": 1626120638023,
		"returnTime": 1626120694505,
		"data": {
			"status": "success",
			"data": {
				"deviceAddres": "0xA6cf2067A552E3eBBaA23002425d61936333813D"
			}
		}
	},
	{
		"id": 122,
		"sentTime": 1626120638024,
		"returnTime": 1626120692973,
		"data": {
			"status": "success",
			"data": {
				"deviceAddres": "0xA6cf2067A552E3eBBaA23002425d61936333813D"
			}
		}
	},
	{
		"id": 123,
		"sentTime": 1626120638024,
		"returnTime": 1626120694476,
		"data": {
			"status": "success",
			"data": {
				"deviceAddres": "0xA6cf2067A552E3eBBaA23002425d61936333813D"
			}
		}
	},
	{
		"id": 124,
		"sentTime": 1626120638024,
		"returnTime": 1626120693198,
		"data": {
			"status": "success",
			"data": {
				"deviceAddres": "0xA6cf2067A552E3eBBaA23002425d61936333813D"
			}
		}
	},
	{
		"id": 125,
		"sentTime": 1626120638024,
		"returnTime": 1626120692874,
		"data": {
			"status": "success",
			"data": {
				"deviceAddres": "0xA6cf2067A552E3eBBaA23002425d61936333813D"
			}
		}
	},
	{
		"id": 126,
		"sentTime": 1626120638024,
		"returnTime": 1626120692877,
		"data": {
			"status": "success",
			"data": {
				"deviceAddres": "0xA6cf2067A552E3eBBaA23002425d61936333813D"
			}
		}
	},
	{
		"id": 127,
		"sentTime": 1626120638024,
		"returnTime": 1626120694515,
		"data": {
			"status": "success",
			"data": {
				"deviceAddres": "0xA6cf2067A552E3eBBaA23002425d61936333813D"
			}
		}
	},
	{
		"id": 128,
		"sentTime": 1626120638024,
		"returnTime": 1626120694480,
		"data": {
			"status": "success",
			"data": {
				"deviceAddres": "0xA6cf2067A552E3eBBaA23002425d61936333813D"
			}
		}
	},
	{
		"id": 129,
		"sentTime": 1626120638024,
		"returnTime": 1626120694501,
		"data": {
			"status": "success",
			"data": {
				"deviceAddres": "0xA6cf2067A552E3eBBaA23002425d61936333813D"
			}
		}
	},
	{
		"id": 130,
		"sentTime": 1626120638024,
		"returnTime": 1626120692885,
		"data": {
			"status": "success",
			"data": {
				"deviceAddres": "0xA6cf2067A552E3eBBaA23002425d61936333813D"
			}
		}
	},
	{
		"id": 131,
		"sentTime": 1626120638024,
		"returnTime": 1626120692844,
		"data": {
			"status": "success",
			"data": {
				"deviceAddres": "0xA6cf2067A552E3eBBaA23002425d61936333813D"
			}
		}
	},
	{
		"id": 132,
		"sentTime": 1626120638024,
		"returnTime": 1626120692925,
		"data": {
			"status": "success",
			"data": {
				"deviceAddres": "0xA6cf2067A552E3eBBaA23002425d61936333813D"
			}
		}
	},
	{
		"id": 133,
		"sentTime": 1626120638024,
		"returnTime": 1626120692904,
		"data": {
			"status": "success",
			"data": {
				"deviceAddres": "0xA6cf2067A552E3eBBaA23002425d61936333813D"
			}
		}
	},
	{
		"id": 134,
		"sentTime": 1626120638024,
		"returnTime": 1626120694496,
		"data": {
			"status": "success",
			"data": {
				"deviceAddres": "0xA6cf2067A552E3eBBaA23002425d61936333813D"
			}
		}
	},
	{
		"id": 135,
		"sentTime": 1626120638024,
		"returnTime": 1626120693198,
		"data": {
			"status": "success",
			"data": {
				"deviceAddres": "0xA6cf2067A552E3eBBaA23002425d61936333813D"
			}
		}
	},
	{
		"id": 136,
		"sentTime": 1626120638024,
		"returnTime": 1626120692945,
		"data": {
			"status": "success",
			"data": {
				"deviceAddres": "0xA6cf2067A552E3eBBaA23002425d61936333813D"
			}
		}
	},
	{
		"id": 137,
		"sentTime": 1626120638024,
		"returnTime": 1626120692882,
		"data": {
			"status": "success",
			"data": {
				"deviceAddres": "0xA6cf2067A552E3eBBaA23002425d61936333813D"
			}
		}
	},
	{
		"id": 138,
		"sentTime": 1626120638025,
		"returnTime": 1626120694536,
		"data": {
			"status": "success",
			"data": {
				"deviceAddres": "0xA6cf2067A552E3eBBaA23002425d61936333813D"
			}
		}
	},
	{
		"id": 139,
		"sentTime": 1626120638025,
		"returnTime": 1626120692934,
		"data": {
			"status": "success",
			"data": {
				"deviceAddres": "0xA6cf2067A552E3eBBaA23002425d61936333813D"
			}
		}
	},
	{
		"id": 140,
		"sentTime": 1626120638025,
		"returnTime": 1626120694475,
		"data": {
			"status": "success",
			"data": {
				"deviceAddres": "0xA6cf2067A552E3eBBaA23002425d61936333813D"
			}
		}
	},
	{
		"id": 141,
		"sentTime": 1626120638025,
		"returnTime": 1626120689821,
		"data": {
			"status": "success",
			"data": {
				"deviceAddres": "0xA6cf2067A552E3eBBaA23002425d61936333813D"
			}
		}
	},
	{
		"id": 142,
		"sentTime": 1626120638025,
		"returnTime": 1626120655528,
		"data": {
			"status": "success",
			"data": {
				"deviceAddres": "0xA6cf2067A552E3eBBaA23002425d61936333813D"
			}
		}
	},
	{
		"id": 143,
		"sentTime": 1626120638025,
		"returnTime": 1626120660296,
		"data": {
			"status": "success",
			"data": {
				"deviceAddres": "0xA6cf2067A552E3eBBaA23002425d61936333813D"
			}
		}
	},
	{
		"id": 144,
		"sentTime": 1626120638025,
		"returnTime": 1626120655530,
		"data": {
			"status": "success",
			"data": {
				"deviceAddres": "0xA6cf2067A552E3eBBaA23002425d61936333813D"
			}
		}
	},
	{
		"id": 145,
		"sentTime": 1626120638025,
		"returnTime": 1626120667353,
		"data": {
			"status": "success",
			"data": {
				"deviceAddres": "0xA6cf2067A552E3eBBaA23002425d61936333813D"
			}
		}
	},
	{
		"id": 146,
		"sentTime": 1626120638025,
		"returnTime": 1626120660305,
		"data": {
			"status": "success",
			"data": {
				"deviceAddres": "0xA6cf2067A552E3eBBaA23002425d61936333813D"
			}
		}
	},
	{
		"id": 147,
		"sentTime": 1626120638025,
		"returnTime": 1626120660302,
		"data": {
			"status": "success",
			"data": {
				"deviceAddres": "0xA6cf2067A552E3eBBaA23002425d61936333813D"
			}
		}
	},
	{
		"id": 148,
		"sentTime": 1626120638025,
		"returnTime": 1626120658636,
		"data": {
			"status": "success",
			"data": {
				"deviceAddres": "0xA6cf2067A552E3eBBaA23002425d61936333813D"
			}
		}
	},
	{
		"id": 149,
		"sentTime": 1626120638025,
		"returnTime": 1626120655532,
		"data": {
			"status": "success",
			"data": {
				"deviceAddres": "0xA6cf2067A552E3eBBaA23002425d61936333813D"
			}
		}
	},
	{
		"id": 150,
		"sentTime": 1626120638025,
		"returnTime": 1626120655524,
		"data": {
			"status": "success",
			"data": {
				"deviceAddres": "0xA6cf2067A552E3eBBaA23002425d61936333813D"
			}
		}
	},
	{
		"id": 151,
		"sentTime": 1626120638025,
		"returnTime": 1626120655539,
		"data": {
			"status": "success",
			"data": {
				"deviceAddres": "0xA6cf2067A552E3eBBaA23002425d61936333813D"
			}
		}
	},
	{
		"id": 152,
		"sentTime": 1626120638025,
		"returnTime": 1626120658671,
		"data": {
			"status": "success",
			"data": {
				"deviceAddres": "0xA6cf2067A552E3eBBaA23002425d61936333813D"
			}
		}
	},
	{
		"id": 153,
		"sentTime": 1626120638025,
		"returnTime": 1626120655535,
		"data": {
			"status": "success",
			"data": {
				"deviceAddres": "0xA6cf2067A552E3eBBaA23002425d61936333813D"
			}
		}
	},
	{
		"id": 154,
		"sentTime": 1626120638025,
		"returnTime": 1626120655533,
		"data": {
			"status": "success",
			"data": {
				"deviceAddres": "0xA6cf2067A552E3eBBaA23002425d61936333813D"
			}
		}
	},
	{
		"id": 155,
		"sentTime": 1626120638025,
		"returnTime": 1626120658648,
		"data": {
			"status": "success",
			"data": {
				"deviceAddres": "0xA6cf2067A552E3eBBaA23002425d61936333813D"
			}
		}
	},
	{
		"id": 156,
		"sentTime": 1626120638025,
		"returnTime": 1626120660297,
		"data": {
			"status": "success",
			"data": {
				"deviceAddres": "0xA6cf2067A552E3eBBaA23002425d61936333813D"
			}
		}
	},
	{
		"id": 157,
		"sentTime": 1626120638025,
		"returnTime": 1626120658671,
		"data": {
			"status": "success",
			"data": {
				"deviceAddres": "0xA6cf2067A552E3eBBaA23002425d61936333813D"
			}
		}
	},
	{
		"id": 158,
		"sentTime": 1626120638025,
		"returnTime": 1626120658628,
		"data": {
			"status": "success",
			"data": {
				"deviceAddres": "0xA6cf2067A552E3eBBaA23002425d61936333813D"
			}
		}
	},
	{
		"id": 159,
		"sentTime": 1626120638025,
		"returnTime": 1626120658663,
		"data": {
			"status": "success",
			"data": {
				"deviceAddres": "0xA6cf2067A552E3eBBaA23002425d61936333813D"
			}
		}
	},
	{
		"id": 160,
		"sentTime": 1626120638025,
		"returnTime": 1626120658662,
		"data": {
			"status": "success",
			"data": {
				"deviceAddres": "0xA6cf2067A552E3eBBaA23002425d61936333813D"
			}
		}
	},
	{
		"id": 161,
		"sentTime": 1626120638025,
		"returnTime": 1626120655525,
		"data": {
			"status": "success",
			"data": {
				"deviceAddres": "0xA6cf2067A552E3eBBaA23002425d61936333813D"
			}
		}
	},
	{
		"id": 162,
		"sentTime": 1626120638025,
		"returnTime": 1626120658645,
		"data": {
			"status": "success",
			"data": {
				"deviceAddres": "0xA6cf2067A552E3eBBaA23002425d61936333813D"
			}
		}
	},
	{
		"id": 163,
		"sentTime": 1626120638025,
		"returnTime": 1626120694512,
		"data": {
			"status": "success",
			"data": {
				"deviceAddres": "0xA6cf2067A552E3eBBaA23002425d61936333813D"
			}
		}
	},
	{
		"id": 164,
		"sentTime": 1626120638025,
		"returnTime": 1626120694529,
		"data": {
			"status": "success",
			"data": {
				"deviceAddres": "0xA6cf2067A552E3eBBaA23002425d61936333813D"
			}
		}
	},
	{
		"id": 165,
		"sentTime": 1626120638025,
		"returnTime": 1626120694520,
		"data": {
			"status": "success",
			"data": {
				"deviceAddres": "0xA6cf2067A552E3eBBaA23002425d61936333813D"
			}
		}
	},
	{
		"id": 166,
		"sentTime": 1626120638025,
		"returnTime": 1626120692856,
		"data": {
			"status": "success",
			"data": {
				"deviceAddres": "0xA6cf2067A552E3eBBaA23002425d61936333813D"
			}
		}
	},
	{
		"id": 167,
		"sentTime": 1626120638025,
		"returnTime": 1626120694514,
		"data": {
			"status": "success",
			"data": {
				"deviceAddres": "0xA6cf2067A552E3eBBaA23002425d61936333813D"
			}
		}
	},
	{
		"id": 168,
		"sentTime": 1626120638025,
		"returnTime": 1626120694475,
		"data": {
			"status": "success",
			"data": {
				"deviceAddres": "0xA6cf2067A552E3eBBaA23002425d61936333813D"
			}
		}
	},
	{
		"id": 169,
		"sentTime": 1626120638026,
		"returnTime": 1626120692957,
		"data": {
			"status": "success",
			"data": {
				"deviceAddres": "0xA6cf2067A552E3eBBaA23002425d61936333813D"
			}
		}
	},
	{
		"id": 170,
		"sentTime": 1626120638026,
		"returnTime": 1626120692975,
		"data": {
			"status": "success",
			"data": {
				"deviceAddres": "0xA6cf2067A552E3eBBaA23002425d61936333813D"
			}
		}
	},
	{
		"id": 171,
		"sentTime": 1626120638026,
		"returnTime": 1626120692909,
		"data": {
			"status": "success",
			"data": {
				"deviceAddres": "0xA6cf2067A552E3eBBaA23002425d61936333813D"
			}
		}
	},
	{
		"id": 172,
		"sentTime": 1626120638026,
		"returnTime": 1626120692918,
		"data": {
			"status": "success",
			"data": {
				"deviceAddres": "0xA6cf2067A552E3eBBaA23002425d61936333813D"
			}
		}
	},
	{
		"id": 173,
		"sentTime": 1626120638026,
		"returnTime": 1626120692928,
		"data": {
			"status": "success",
			"data": {
				"deviceAddres": "0xA6cf2067A552E3eBBaA23002425d61936333813D"
			}
		}
	},
	{
		"id": 174,
		"sentTime": 1626120638026,
		"returnTime": 1626120692888,
		"data": {
			"status": "success",
			"data": {
				"deviceAddres": "0xA6cf2067A552E3eBBaA23002425d61936333813D"
			}
		}
	},
	{
		"id": 175,
		"sentTime": 1626120638026,
		"returnTime": 1626120692906,
		"data": {
			"status": "success",
			"data": {
				"deviceAddres": "0xA6cf2067A552E3eBBaA23002425d61936333813D"
			}
		}
	},
	{
		"id": 176,
		"sentTime": 1626120638026,
		"returnTime": 1626120692920,
		"data": {
			"status": "success",
			"data": {
				"deviceAddres": "0xA6cf2067A552E3eBBaA23002425d61936333813D"
			}
		}
	},
	{
		"id": 177,
		"sentTime": 1626120638026,
		"returnTime": 1626120692934,
		"data": {
			"status": "success",
			"data": {
				"deviceAddres": "0xA6cf2067A552E3eBBaA23002425d61936333813D"
			}
		}
	},
	{
		"id": 178,
		"sentTime": 1626120638026,
		"returnTime": 1626120694549,
		"data": {
			"status": "success",
			"data": {
				"deviceAddres": "0xA6cf2067A552E3eBBaA23002425d61936333813D"
			}
		}
	},
	{
		"id": 179,
		"sentTime": 1626120638026,
		"returnTime": 1626120692977,
		"data": {
			"status": "success",
			"data": {
				"deviceAddres": "0xA6cf2067A552E3eBBaA23002425d61936333813D"
			}
		}
	},
	{
		"id": 180,
		"sentTime": 1626120638026,
		"returnTime": 1626120693210,
		"data": {
			"status": "success",
			"data": {
				"deviceAddres": "0xA6cf2067A552E3eBBaA23002425d61936333813D"
			}
		}
	},
	{
		"id": 181,
		"sentTime": 1626120638026,
		"returnTime": 1626120694500,
		"data": {
			"status": "success",
			"data": {
				"deviceAddres": "0xA6cf2067A552E3eBBaA23002425d61936333813D"
			}
		}
	},
	{
		"id": 182,
		"sentTime": 1626120638026,
		"returnTime": 1626120692863,
		"data": {
			"status": "success",
			"data": {
				"deviceAddres": "0xA6cf2067A552E3eBBaA23002425d61936333813D"
			}
		}
	},
	{
		"id": 183,
		"sentTime": 1626120638026,
		"returnTime": 1626120693200,
		"data": {
			"status": "success",
			"data": {
				"deviceAddres": "0xA6cf2067A552E3eBBaA23002425d61936333813D"
			}
		}
	},
	{
		"id": 184,
		"sentTime": 1626120638026,
		"returnTime": 1626120694524,
		"data": {
			"status": "success",
			"data": {
				"deviceAddres": "0xA6cf2067A552E3eBBaA23002425d61936333813D"
			}
		}
	},
	{
		"id": 185,
		"sentTime": 1626120638026,
		"returnTime": 1626120692914,
		"data": {
			"status": "success",
			"data": {
				"deviceAddres": "0xA6cf2067A552E3eBBaA23002425d61936333813D"
			}
		}
	},
	{
		"id": 186,
		"sentTime": 1626120638026,
		"returnTime": 1626120692838,
		"data": {
			"status": "success",
			"data": {
				"deviceAddres": "0xA6cf2067A552E3eBBaA23002425d61936333813D"
			}
		}
	},
	{
		"id": 187,
		"sentTime": 1626120638026,
		"returnTime": 1626120692873,
		"data": {
			"status": "success",
			"data": {
				"deviceAddres": "0xA6cf2067A552E3eBBaA23002425d61936333813D"
			}
		}
	},
	{
		"id": 188,
		"sentTime": 1626120638026,
		"returnTime": 1626120692998,
		"data": {
			"status": "success",
			"data": {
				"deviceAddres": "0xA6cf2067A552E3eBBaA23002425d61936333813D"
			}
		}
	},
	{
		"id": 189,
		"sentTime": 1626120638026,
		"returnTime": 1626120692982,
		"data": {
			"status": "success",
			"data": {
				"deviceAddres": "0xA6cf2067A552E3eBBaA23002425d61936333813D"
			}
		}
	},
	{
		"id": 190,
		"sentTime": 1626120638026,
		"returnTime": 1626120692959,
		"data": {
			"status": "success",
			"data": {
				"deviceAddres": "0xA6cf2067A552E3eBBaA23002425d61936333813D"
			}
		}
	},
	{
		"id": 191,
		"sentTime": 1626120638026,
		"returnTime": 1626120692997,
		"data": {
			"status": "success",
			"data": {
				"deviceAddres": "0xA6cf2067A552E3eBBaA23002425d61936333813D"
			}
		}
	},
	{
		"id": 192,
		"sentTime": 1626120638026,
		"returnTime": 1626120692949,
		"data": {
			"status": "success",
			"data": {
				"deviceAddres": "0xA6cf2067A552E3eBBaA23002425d61936333813D"
			}
		}
	},
	{
		"id": 193,
		"sentTime": 1626120638026,
		"returnTime": 1626120694495,
		"data": {
			"status": "success",
			"data": {
				"deviceAddres": "0xA6cf2067A552E3eBBaA23002425d61936333813D"
			}
		}
	},
	{
		"id": 194,
		"sentTime": 1626120638026,
		"returnTime": 1626120694532,
		"data": {
			"status": "success",
			"data": {
				"deviceAddres": "0xA6cf2067A552E3eBBaA23002425d61936333813D"
			}
		}
	},
	{
		"id": 195,
		"sentTime": 1626120638026,
		"returnTime": 1626120694466,
		"data": {
			"status": "success",
			"data": {
				"deviceAddres": "0xA6cf2067A552E3eBBaA23002425d61936333813D"
			}
		}
	},
	{
		"id": 196,
		"sentTime": 1626120638026,
		"returnTime": 1626120693228,
		"data": {
			"status": "success",
			"data": {
				"deviceAddres": "0xA6cf2067A552E3eBBaA23002425d61936333813D"
			}
		}
	},
	{
		"id": 197,
		"sentTime": 1626120638026,
		"returnTime": 1626120694518,
		"data": {
			"status": "success",
			"data": {
				"deviceAddres": "0xA6cf2067A552E3eBBaA23002425d61936333813D"
			}
		}
	},
	{
		"id": 198,
		"sentTime": 1626120638026,
		"returnTime": 1626120692956,
		"data": {
			"status": "success",
			"data": {
				"deviceAddres": "0xA6cf2067A552E3eBBaA23002425d61936333813D"
			}
		}
	},
	{
		"id": 199,
		"sentTime": 1626120638026,
		"returnTime": 1626120692974,
		"data": {
			"status": "success",
			"data": {
				"deviceAddres": "0xA6cf2067A552E3eBBaA23002425d61936333813D"
			}
		}
	},
	{
		"x": "200",
		"totalTime": 56538,
		"totalRate": 3.537443843078991
	}
]