{"x":10,"y":5003}
{"x":10,"y":653}
{"x":10,"y":4897}
{"x":10,"y":672}
{"x":10,"y":683}
{"x":10,"y":743}
{"x":10,"y":661}
{"x":10,"y":707}
{"x":10,"y":702}
{"x":10,"y":4946}
{"x":20,"y":5210}
{"x":20,"y":1034}
{"x":20,"y":5349}
{"x":20,"y":1122}
{"x":20,"y":5292}
{"x":20,"y":1023}
{"x":20,"y":1179}
{"x":20,"y":5396}
{"x":20,"y":1215}
{"x":20,"y":5488}
{"x":50,"y":6435}
{"x":50,"y":10683}
{"x":50,"y":6568}
{"x":50,"y":10996}
{"x":50,"y":6401}
{"x":50,"y":11254}
{"x":50,"y":6369}
{"x":50,"y":11095}
{"x":50,"y":6379}
{"x":50,"y":6878}
{"x":100,"y":6458}
{"x":100,"y":10444}
{"x":100,"y":12165}
{"x":100,"y":13961}
{"x":100,"y":19575}
{"x":100,"y":17787}
{"x":100,"y":20859}
{"x":100,"y":13496}
{"x":200,"y":30617}
{"x":200,"y":23286}
{"x":200,"y":40521}
{"x":200,"y":24396}
{"x":200,"y":24016}
{"x":200,"y":32009}
{"x":200,"y":27113}
{"x":200,"y":56538}
