[
	{
		"id": 0,
		"sentTime": 1626108446404,
		"returnTime": 1626108447035,
		"data": {
			"status": "success",
			"data": {
				"deviceAddress": "0xb2b6179D929CBB6317934C566A127f405500C173"
			}
		}
	},
	{
		"id": 1,
		"sentTime": 1626108446405,
		"returnTime": 1626108447034,
		"data": {
			"status": "success",
			"data": {
				"deviceAddress": "0x9D4371caE4bA91513C90a221d33666b680D24801"
			}
		}
	},
	{
		"id": 2,
		"sentTime": 1626108446405,
		"returnTime": 1626108447280,
		"data": {
			"status": "success",
			"data": {
				"deviceAddress": "0xe7c3BCbC4FF5c043075889d7978A00a109a7Be77"
			}
		}
	},
	{
		"id": 3,
		"sentTime": 1626108446405,
		"returnTime": 1626108447277,
		"data": {
			"status": "success",
			"data": {
				"deviceAddress": "0x686de14e1eCdFD30e464F38d6d3BE0e2f485485e"
			}
		}
	},
	{
		"id": 4,
		"sentTime": 1626108446405,
		"returnTime": 1626108448310,
		"data": {
			"status": "success",
			"data": {
				"deviceAddress": "0x4972A809aA461750fC24e01dCe94a9268a8AEf3c"
			}
		}
	},
	{
		"id": 5,
		"sentTime": 1626108446405,
		"returnTime": 1626108448310,
		"data": {
			"status": "success",
			"data": {
				"deviceAddress": "0x693D0Fb32B46aA6B737C9036c8Fff6bFee5D7f4A"
			}
		}
	},
	{
		"id": 6,
		"sentTime": 1626108446405,
		"returnTime": 1626108448309,
		"data": {
			"status": "success",
			"data": {
				"deviceAddress": "0x21B74A6d63F927bDa9f88d68650e39A58d2b4909"
			}
		}
	},
	{
		"id": 7,
		"sentTime": 1626108446405,
		"returnTime": 1626108448307,
		"data": {
			"status": "success",
			"data": {
				"deviceAddress": "0xb297963a92a44889d2999aedb10aaF67cC652420"
			}
		}
	},
	{
		"id": 8,
		"sentTime": 1626108446406,
		"returnTime": 1626108448308,
		"data": {
			"status": "success",
			"data": {
				"deviceAddress": "0x0500A774D28C520C8fDF6f7e218cEDab6e9d2529"
			}
		}
	},
	{
		"id": 9,
		"sentTime": 1626108446406,
		"returnTime": 1626108448310,
		"data": {
			"status": "success",
			"data": {
				"deviceAddress": "0x1353a0BC057334237BBF013713F503C85be416AB"
			}
		}
	},
	{
		"id": 10,
		"sentTime": 1626108446406,
		"returnTime": 1626108448312,
		"data": {
			"status": "success",
			"data": {
				"deviceAddress": "0x8286a597Aa57c12CFf3B7C2810F1e9900173b730"
			}
		}
	},
	{
		"id": 11,
		"sentTime": 1626108446406,
		"returnTime": 1626108448308,
		"data": {
			"status": "success",
			"data": {
				"deviceAddress": "0x014EF1F9C6440cA9e2caC7d3830d28272909245D"
			}
		}
	},
	{
		"id": 12,
		"sentTime": 1626108446406,
		"returnTime": 1626108448309,
		"data": {
			"status": "success",
			"data": {
				"deviceAddress": "0x253967206a83f764c71baf41030F81b3fEF3441f"
			}
		}
	},
	{
		"id": 13,
		"sentTime": 1626108446406,
		"returnTime": 1626108448309,
		"data": {
			"status": "success",
			"data": {
				"deviceAddress": "0x0540552074af4DBb6dFc36d51f579c817CecB12b"
			}
		}
	},
	{
		"id": 14,
		"sentTime": 1626108446406,
		"returnTime": 1626108448309,
		"data": {
			"status": "success",
			"data": {
				"deviceAddress": "0xc5fEF41B65008c4C66Be4DC4290E66489f10a3a9"
			}
		}
	},
	{
		"id": 15,
		"sentTime": 1626108446406,
		"returnTime": 1626108448308,
		"data": {
			"status": "success",
			"data": {
				"deviceAddress": "0x357AB91c65895335518f45eDC6beF5d0852C54a1"
			}
		}
	},
	{
		"id": 16,
		"sentTime": 1626108446406,
		"returnTime": 1626108448310,
		"data": {
			"status": "success",
			"data": {
				"deviceAddress": "0x8DF9fDc9de53B458f6632f2839147D4f9FC8Ed85"
			}
		}
	},
	{
		"id": 17,
		"sentTime": 1626108446406,
		"returnTime": 1626108448308,
		"data": {
			"status": "success",
			"data": {
				"deviceAddress": "0x5a44dAD0477fefC397Be721c8592EBCe2956E3Dd"
			}
		}
	},
	{
		"id": 18,
		"sentTime": 1626108446406,
		"returnTime": 1626108448311,
		"data": {
			"status": "success",
			"data": {
				"deviceAddress": "0xB3263b652ADBddd2d5E89b4C79f9efB6235539C1"
			}
		}
	},
	{
		"id": 19,
		"sentTime": 1626108446406,
		"returnTime": 1626108448312,
		"data": {
			"status": "success",
			"data": {
				"deviceAddress": "0x7BC9f959bc78FfE5F63d8A5fD26DBe28d3DB5586"
			}
		}
	},
	{
		"id": 20,
		"sentTime": 1626108446406,
		"returnTime": 1626108448311,
		"data": {
			"status": "success",
			"data": {
				"deviceAddress": "0xc1dFB7572E85d4fDA3ad4f95d355fe155Fabd235"
			}
		}
	},
	{
		"id": 21,
		"sentTime": 1626108446406,
		"returnTime": 1626108448311,
		"data": {
			"status": "success",
			"data": {
				"deviceAddress": "0xCc5892d349F000542cD07796b266BD255Bfcb101"
			}
		}
	},
	{
		"id": 22,
		"sentTime": 1626108446406,
		"returnTime": 1626108448311,
		"data": {
			"status": "success",
			"data": {
				"deviceAddress": "0xBf3CA6b8E95C3b95f1df5eE874B5a878c46c2f78"
			}
		}
	},
	{
		"id": 23,
		"sentTime": 1626108446406,
		"returnTime": 1626108449364,
		"data": {
			"status": "success",
			"data": {
				"deviceAddress": "0x3F30deDE4384490f036f33176e7EB1B32a04CD76"
			}
		}
	},
	{
		"id": 24,
		"sentTime": 1626108446406,
		"returnTime": 1626108449371,
		"data": {
			"status": "success",
			"data": {
				"deviceAddress": "0x5024a94EF50AC297a1F0f4F8014c6AE395062933"
			}
		}
	},
	{
		"id": 25,
		"sentTime": 1626108446407,
		"returnTime": 1626108449371,
		"data": {
			"status": "success",
			"data": {
				"deviceAddress": "0x91C05A99CA52F9f43b3b0D661461c0c4B77F3516"
			}
		}
	},
	{
		"id": 26,
		"sentTime": 1626108446407,
		"returnTime": 1626108449364,
		"data": {
			"status": "success",
			"data": {
				"deviceAddress": "0x479774fB4B7068B0547699a70e34D0aB8CeF3fD4"
			}
		}
	},
	{
		"id": 27,
		"sentTime": 1626108446407,
		"returnTime": 1626108449358,
		"data": {
			"status": "success",
			"data": {
				"deviceAddress": "0x6Dc8E8d91b8B205b9e2f3cd7279fCc1c97260af7"
			}
		}
	},
	{
		"id": 28,
		"sentTime": 1626108446407,
		"returnTime": 1626108449396,
		"data": {
			"status": "success",
			"data": {
				"deviceAddress": "0x008feCfdfc3DD4365A061e582d229bE872BA9be6"
			}
		}
	},
	{
		"id": 29,
		"sentTime": 1626108446407,
		"returnTime": 1626108449387,
		"data": {
			"status": "success",
			"data": {
				"deviceAddress": "0x29200b36c1eFA4A13e39d6a45E56d087269CEB7b"
			}
		}
	},
	{
		"id": 30,
		"sentTime": 1626108446407,
		"returnTime": 1626108449371,
		"data": {
			"status": "success",
			"data": {
				"deviceAddress": "0x30b574AA184A3Fa5A37465c9C2054b3427AC8cF6"
			}
		}
	},
	{
		"id": 31,
		"sentTime": 1626108446407,
		"returnTime": 1626108449374,
		"data": {
			"status": "success",
			"data": {
				"deviceAddress": "0x5353eAac8b8587C3Ab30a03FfFEf9a3eD124B2eB"
			}
		}
	},
	{
		"id": 32,
		"sentTime": 1626108446407,
		"returnTime": 1626108449373,
		"data": {
			"status": "success",
			"data": {
				"deviceAddress": "0xA9f6e026727601F460b4Cd7857272Ef50ab03122"
			}
		}
	},
	{
		"id": 33,
		"sentTime": 1626108446407,
		"returnTime": 1626108449374,
		"data": {
			"status": "success",
			"data": {
				"deviceAddress": "0x979cc6e31ECBfb7566425dd910864D735b1691F1"
			}
		}
	},
	{
		"id": 34,
		"sentTime": 1626108446407,
		"returnTime": 1626108449371,
		"data": {
			"status": "success",
			"data": {
				"deviceAddress": "0xbb725A1C8c264d2Ec6cf1B39FD43604BCb7F21cf"
			}
		}
	},
	{
		"id": 35,
		"sentTime": 1626108446407,
		"returnTime": 1626108449364,
		"data": {
			"status": "success",
			"data": {
				"deviceAddress": "0x404A1B0112b14d5049361B9Ad9f04596F7913594"
			}
		}
	},
	{
		"id": 36,
		"sentTime": 1626108446407,
		"returnTime": 1626108449373,
		"data": {
			"status": "success",
			"data": {
				"deviceAddress": "0x480e8066BFE726D82211FF6547Aa8fB423c3D83b"
			}
		}
	},
	{
		"id": 37,
		"sentTime": 1626108446407,
		"returnTime": 1626108449372,
		"data": {
			"status": "success",
			"data": {
				"deviceAddress": "0x4DA433501fdaaCFA54441ef4cc8948193363dED8"
			}
		}
	},
	{
		"id": 38,
		"sentTime": 1626108446407,
		"returnTime": 1626108449371,
		"data": {
			"status": "success",
			"data": {
				"deviceAddress": "0x9A5fA2Bc0b099F0C431930dB2E5172721579D011"
			}
		}
	},
	{
		"id": 39,
		"sentTime": 1626108446407,
		"returnTime": 1626108449387,
		"data": {
			"status": "success",
			"data": {
				"deviceAddress": "0xa8326cEf0438334B764E81e6d0523fc499239797"
			}
		}
	},
	{
		"id": 40,
		"sentTime": 1626108446407,
		"returnTime": 1626108449386,
		"data": {
			"status": "success",
			"data": {
				"deviceAddress": "0x089D313d27FeF395FdBCe2fd68ec1dE6860290D8"
			}
		}
	},
	{
		"id": 41,
		"sentTime": 1626108446407,
		"returnTime": 1626108449372,
		"data": {
			"status": "success",
			"data": {
				"deviceAddress": "0x24551867Fe22b5011F967592B052b8d6E8E299cB"
			}
		}
	},
	{
		"id": 42,
		"sentTime": 1626108446407,
		"returnTime": 1626108449387,
		"data": {
			"status": "success",
			"data": {
				"deviceAddress": "0xDaa861A6725232FB7507B76Ca6F7798302020e0a"
			}
		}
	},
	{
		"id": 43,
		"sentTime": 1626108446408,
		"returnTime": 1626108449395,
		"data": {
			"status": "success",
			"data": {
				"deviceAddress": "0xa6916C1791aE8a3BE5F93386Ce26e395c9D229e4"
			}
		}
	},
	{
		"id": 44,
		"sentTime": 1626108446408,
		"returnTime": 1626108449373,
		"data": {
			"status": "success",
			"data": {
				"deviceAddress": "0xb4d071AFdAF26Fc99B9606ed48FaAe31Cd77677A"
			}
		}
	},
	{
		"id": 45,
		"sentTime": 1626108446408,
		"returnTime": 1626108449372,
		"data": {
			"status": "success",
			"data": {
				"deviceAddress": "0xDB6b5D13e0360a47D2b09057a9c0501BD8820be2"
			}
		}
	},
	{
		"id": 46,
		"sentTime": 1626108446408,
		"returnTime": 1626108449396,
		"data": {
			"status": "success",
			"data": {
				"deviceAddress": "0x3ec7C01Ab07a0bD2A6B339F874F4814B58139139"
			}
		}
	},
	{
		"id": 47,
		"sentTime": 1626108446408,
		"returnTime": 1626108449372,
		"data": {
			"status": "success",
			"data": {
				"deviceAddress": "0x8C0ECf9EA0121e7Dc57FD6C59e2732E223069Bde"
			}
		}
	},
	{
		"id": 48,
		"sentTime": 1626108446408,
		"returnTime": 1626108449395,
		"data": {
			"status": "success",
			"data": {
				"deviceAddress": "0x3bB713C444f7C7f9b49c5b53207baB8057EBce7C"
			}
		}
	},
	{
		"id": 49,
		"sentTime": 1626108446408,
		"returnTime": 1626108449387,
		"data": {
			"status": "success",
			"data": {
				"deviceAddress": "0xfe411E9357f91a2Ed3C12A7A307198178c0cfC85"
			}
		}
	},
	{
		"id": 50,
		"sentTime": 1626108446408,
		"returnTime": 1626108449372,
		"data": {
			"status": "success",
			"data": {
				"deviceAddress": "0x1dca8775f57eB7Ac64DC93a81A61A623AE041718"
			}
		}
	},
	{
		"id": 51,
		"sentTime": 1626108446408,
		"returnTime": 1626108449395,
		"data": {
			"status": "success",
			"data": {
				"deviceAddress": "0x384A7A5cc288225389993f000ae768AD7ecBD880"
			}
		}
	},
	{
		"id": 52,
		"sentTime": 1626108446408,
		"returnTime": 1626108449388,
		"data": {
			"status": "success",
			"data": {
				"deviceAddress": "0x5d1103cd842eC9a768d0b3aD71DB1FA6150859a5"
			}
		}
	},
	{
		"id": 53,
		"sentTime": 1626108446408,
		"returnTime": 1626108449395,
		"data": {
			"status": "success",
			"data": {
				"deviceAddress": "0x2022FdF935402D9E0eb51dc90362DC6B6b99187e"
			}
		}
	},
	{
		"id": 54,
		"sentTime": 1626108446408,
		"returnTime": 1626108449372,
		"data": {
			"status": "success",
			"data": {
				"deviceAddress": "0x69cbdBF630Ce4199bA183B7a63AdcEe736Fdb7CE"
			}
		}
	},
	{
		"id": 55,
		"sentTime": 1626108446408,
		"returnTime": 1626108449395,
		"data": {
			"status": "success",
			"data": {
				"deviceAddress": "0xbe5092189471A26Ecf1f6aff348c5E2267FE84dd"
			}
		}
	},
	{
		"id": 56,
		"sentTime": 1626108446408,
		"returnTime": 1626108449372,
		"data": {
			"status": "success",
			"data": {
				"deviceAddress": "0x0F30CaF20C5B991d3E07587a17127Cc32F8F5375"
			}
		}
	},
	{
		"id": 57,
		"sentTime": 1626108446408,
		"returnTime": 1626108449386,
		"data": {
			"status": "success",
			"data": {
				"deviceAddress": "0x6AE3d4BA3aAf7e95906f15380D36b4Ce96793f32"
			}
		}
	},
	{
		"id": 58,
		"sentTime": 1626108446408,
		"returnTime": 1626108449372,
		"data": {
			"status": "success",
			"data": {
				"deviceAddress": "0x53c9F88A988aaEBc79FC4fd26E7Fb04E39A14Af2"
			}
		}
	},
	{
		"id": 59,
		"sentTime": 1626108446408,
		"returnTime": 1626108449387,
		"data": {
			"status": "success",
			"data": {
				"deviceAddress": "0x5E43B4F2F904009b1Ef933FeB904D17d5aF65F64"
			}
		}
	},
	{
		"id": 60,
		"sentTime": 1626108446408,
		"returnTime": 1626108449387,
		"data": {
			"status": "success",
			"data": {
				"deviceAddress": "0x2f92238C2143456E8237704D130f53DDc3dB3468"
			}
		}
	},
	{
		"id": 61,
		"sentTime": 1626108446409,
		"returnTime": 1626108449373,
		"data": {
			"status": "success",
			"data": {
				"deviceAddress": "0xC06c00497D422610d4837e2eEb3De5000E7147b7"
			}
		}
	},
	{
		"id": 62,
		"sentTime": 1626108446409,
		"returnTime": 1626108449386,
		"data": {
			"status": "success",
			"data": {
				"deviceAddress": "0xEE65F7A4257F533F18239ecD92AE66372abF50EA"
			}
		}
	},
	{
		"id": 63,
		"sentTime": 1626108446409,
		"returnTime": 1626108449396,
		"data": {
			"status": "success",
			"data": {
				"deviceAddress": "0x47395428c4406f15806853Bcd9858775417EF180"
			}
		}
	},
	{
		"id": 64,
		"sentTime": 1626108446409,
		"returnTime": 1626108449386,
		"data": {
			"status": "success",
			"data": {
				"deviceAddress": "0x09015a775006A1845C2A7808c7abb00c3dFF750e"
			}
		}
	},
	{
		"id": 65,
		"sentTime": 1626108446409,
		"returnTime": 1626108449387,
		"data": {
			"status": "success",
			"data": {
				"deviceAddress": "0x4A3380028324F475917e5C3cf300e0A0e38b9c16"
			}
		}
	},
	{
		"id": 66,
		"sentTime": 1626108446409,
		"returnTime": 1626108449372,
		"data": {
			"status": "success",
			"data": {
				"deviceAddress": "0x82f510F212d8CDaFF426f1f273A101dA7a00d932"
			}
		}
	},
	{
		"id": 67,
		"sentTime": 1626108446409,
		"returnTime": 1626108449395,
		"data": {
			"status": "success",
			"data": {
				"deviceAddress": "0x2BE40FaF56c88A72cBAaf1268774D828E256645d"
			}
		}
	},
	{
		"id": 68,
		"sentTime": 1626108446409,
		"returnTime": 1626108449373,
		"data": {
			"status": "success",
			"data": {
				"deviceAddress": "0x41E157Da09aCF633a4b60279A6e00d474a65371B"
			}
		}
	},
	{
		"id": 69,
		"sentTime": 1626108446409,
		"returnTime": 1626108450329,
		"data": {
			"status": "success",
			"data": {
				"deviceAddress": "0x18C5B30b0Eb79F7eA56e44E8c8E58ADF8dE3eCaB"
			}
		}
	},
	{
		"id": 70,
		"sentTime": 1626108446409,
		"returnTime": 1626108450312,
		"data": {
			"status": "success",
			"data": {
				"deviceAddress": "0x2A0e95B2148D73131fd7a127f80d7DcEFdF650d4"
			}
		}
	},
	{
		"id": 71,
		"sentTime": 1626108446409,
		"returnTime": 1626108450324,
		"data": {
			"status": "success",
			"data": {
				"deviceAddress": "0x94de10a560d02430FDF6F3a7009bb838F23516c1"
			}
		}
	},
	{
		"id": 72,
		"sentTime": 1626108446409,
		"returnTime": 1626108450324,
		"data": {
			"status": "success",
			"data": {
				"deviceAddress": "0x9cE91aC69B3d7faedE49E58475B06Ded5c240A01"
			}
		}
	},
	{
		"id": 73,
		"sentTime": 1626108446409,
		"returnTime": 1626108450312,
		"data": {
			"status": "success",
			"data": {
				"deviceAddress": "0xc5Da6C81e9Ba9d49a601F7FA0722fc4aa45B67b5"
			}
		}
	},
	{
		"id": 74,
		"sentTime": 1626108446409,
		"returnTime": 1626108450329,
		"data": {
			"status": "success",
			"data": {
				"deviceAddress": "0x13e0ECd8C952dED6b8b839eEb141fc56E6e96CC8"
			}
		}
	},
	{
		"id": 75,
		"sentTime": 1626108446410,
		"returnTime": 1626108450321,
		"data": {
			"status": "success",
			"data": {
				"deviceAddress": "0xEd38483F337B9C2547C9BC71E86F83C3897e78Aa"
			}
		}
	},
	{
		"id": 76,
		"sentTime": 1626108446410,
		"returnTime": 1626108450330,
		"data": {
			"status": "success",
			"data": {
				"deviceAddress": "0xc1E0204A877F62Ab94c80ec37F79667091c5E381"
			}
		}
	},
	{
		"id": 77,
		"sentTime": 1626108446410,
		"returnTime": 1626108450324,
		"data": {
			"status": "success",
			"data": {
				"deviceAddress": "0x306f1fcD159a5075bc15E334d41aBE7064D4EBe4"
			}
		}
	},
	{
		"id": 78,
		"sentTime": 1626108446410,
		"returnTime": 1626108450324,
		"data": {
			"status": "success",
			"data": {
				"deviceAddress": "0xa1004E39E1bc7bF8Ff0F4fB6139d81f7C80EabCE"
			}
		}
	},
	{
		"id": 79,
		"sentTime": 1626108446410,
		"returnTime": 1626108450329,
		"data": {
			"status": "success",
			"data": {
				"deviceAddress": "0x12e62173a344BED739A725BE01E877cC3c45A391"
			}
		}
	},
	{
		"id": 80,
		"sentTime": 1626108446410,
		"returnTime": 1626108450325,
		"data": {
			"status": "success",
			"data": {
				"deviceAddress": "0xd08b973cd2fBc5eFF4f080F17C6F52aD210103C6"
			}
		}
	},
	{
		"id": 81,
		"sentTime": 1626108446410,
		"returnTime": 1626108450324,
		"data": {
			"status": "success",
			"data": {
				"deviceAddress": "0x083d29eC92cAAC5cfD105431A7155e921649094E"
			}
		}
	},
	{
		"id": 82,
		"sentTime": 1626108446410,
		"returnTime": 1626108450329,
		"data": {
			"status": "success",
			"data": {
				"deviceAddress": "0xD35e4e947208c1c8f8F3Ee488fF499F11E5869E3"
			}
		}
	},
	{
		"id": 83,
		"sentTime": 1626108446410,
		"returnTime": 1626108450312,
		"data": {
			"status": "success",
			"data": {
				"deviceAddress": "0x522E8230bA44C1b21F982E08a649E9232Bd30c2d"
			}
		}
	},
	{
		"id": 84,
		"sentTime": 1626108446410,
		"returnTime": 1626108450329,
		"data": {
			"status": "success",
			"data": {
				"deviceAddress": "0xa00C979a648C26b96a49F4c90533EeF0297CB77C"
			}
		}
	},
	{
		"id": 85,
		"sentTime": 1626108446410,
		"returnTime": 1626108450325,
		"data": {
			"status": "success",
			"data": {
				"deviceAddress": "0xd6De314f31BE08E19F8F7D58F06814B1B8933293"
			}
		}
	},
	{
		"id": 86,
		"sentTime": 1626108446410,
		"returnTime": 1626108450325,
		"data": {
			"status": "success",
			"data": {
				"deviceAddress": "0x3D5f9B7c83DA00eb3fA5658b145842288015B464"
			}
		}
	},
	{
		"id": 87,
		"sentTime": 1626108446410,
		"returnTime": 1626108450325,
		"data": {
			"status": "success",
			"data": {
				"deviceAddress": "0x6EAae741139C3aAE28dDEA22Bc2B6546766b70d8"
			}
		}
	},
	{
		"id": 88,
		"sentTime": 1626108446410,
		"returnTime": 1626108450331,
		"data": {
			"status": "success",
			"data": {
				"deviceAddress": "0x09240461b22527f73B252EE2DF378E084638f79b"
			}
		}
	},
	{
		"id": 89,
		"sentTime": 1626108446410,
		"returnTime": 1626108450324,
		"data": {
			"status": "success",
			"data": {
				"deviceAddress": "0x9A98A506657f0361CfaC0F9E4f2D5d67e9531113"
			}
		}
	},
	{
		"id": 90,
		"sentTime": 1626108446411,
		"returnTime": 1626108450324,
		"data": {
			"status": "success",
			"data": {
				"deviceAddress": "0xe418B8188b3103A571150a058b2dEC038beaA26E"
			}
		}
	},
	{
		"id": 91,
		"sentTime": 1626108446411,
		"returnTime": 1626108450325,
		"data": {
			"status": "success",
			"data": {
				"deviceAddress": "0xe6969CA5cD52a21bA03aC033e49853941474602d"
			}
		}
	},
	{
		"id": 92,
		"sentTime": 1626108446411,
		"returnTime": 1626108450330,
		"data": {
			"status": "success",
			"data": {
				"deviceAddress": "0x501617556d0ECf79cdbb63a2eD8C52c0F2C8D815"
			}
		}
	},
	{
		"id": 93,
		"sentTime": 1626108446411,
		"returnTime": 1626108450330,
		"data": {
			"status": "success",
			"data": {
				"deviceAddress": "0x9CABDc0daf5Cdc227089891E7a82F0E8893367bC"
			}
		}
	},
	{
		"id": 94,
		"sentTime": 1626108446411,
		"returnTime": 1626108450330,
		"data": {
			"status": "success",
			"data": {
				"deviceAddress": "0x03108395C74Df932d0886e9a3Ae99C8A544da692"
			}
		}
	},
	{
		"id": 95,
		"sentTime": 1626108446411,
		"returnTime": 1626108450329,
		"data": {
			"status": "success",
			"data": {
				"deviceAddress": "0xA806727d8Ac8800650ccc9b91833F8C1f7388cC0"
			}
		}
	},
	{
		"id": 96,
		"sentTime": 1626108446411,
		"returnTime": 1626108450331,
		"data": {
			"status": "success",
			"data": {
				"deviceAddress": "0x91ca3C5b1B7adA850175cE646bf97CEE57Fb7CB0"
			}
		}
	},
	{
		"id": 97,
		"sentTime": 1626108446411,
		"returnTime": 1626108450329,
		"data": {
			"status": "success",
			"data": {
				"deviceAddress": "0x9F08Eeeb44dD476b154f03eF55C286Ae63b166B5"
			}
		}
	},
	{
		"id": 98,
		"sentTime": 1626108446411,
		"returnTime": 1626108451276,
		"data": {
			"status": "success",
			"data": {
				"deviceAddress": "0x50CeE4638D835Ef49fCa3eb232D700744DDe4445"
			}
		}
	},
	{
		"id": 99,
		"sentTime": 1626108446411,
		"returnTime": 1626108451275,
		"data": {
			"status": "success",
			"data": {
				"deviceAddress": "0x87b4Cb5F08B8f1D679eaF0821903B4bB56446338"
			}
		}
	},
	{
		"x": "100",
		"totalTime": 4872,
		"totalRate": 20.525451559934318
	}
]