[
	{
		"id": 0,
		"sentTime": 1626111751087,
		"returnTime": 1626111757568,
		"data": {
			"status": "success",
			"data": {
				"deviceAddress": "0x8C12fF35455c6843ACb84Ba74aA809349b1D1051"
			}
		}
	},
	{
		"id": 1,
		"sentTime": 1626111751088,
		"returnTime": 1626111757589,
		"data": {
			"status": "success",
			"data": {
				"deviceAddress": "0x9e311965d9dc4700D8216aF5Ad0A45df840AEC93"
			}
		}
	},
	{
		"id": 2,
		"sentTime": 1626111751088,
		"returnTime": 1626111757590,
		"data": {
			"status": "success",
			"data": {
				"deviceAddress": "0x853D9883e430cA73580fDD722fc5daa3Aca42649"
			}
		}
	},
	{
		"id": 3,
		"sentTime": 1626111751088,
		"returnTime": 1626111757598,
		"data": {
			"status": "success",
			"data": {
				"deviceAddress": "0x483B879C498d01C70F24E395aAc04fee97C7c151"
			}
		}
	},
	{
		"id": 4,
		"sentTime": 1626111751088,
		"returnTime": 1626111757568,
		"data": {
			"status": "success",
			"data": {
				"deviceAddress": "0x4D69BB35C5D10d5cDD3eB612DbB550d02E544cF7"
			}
		}
	},
	{
		"id": 5,
		"sentTime": 1626111751088,
		"returnTime": 1626111757553,
		"data": {
			"status": "success",
			"data": {
				"deviceAddress": "0x3895D4802a1cF5564aeeE34ea91B9AEF55705e2d"
			}
		}
	},
	{
		"id": 6,
		"sentTime": 1626111751088,
		"returnTime": 1626111754001,
		"data": {
			"status": "success",
			"data": {
				"deviceAddress": "0x96e8616a348d6240d9928880d6d32bbF6AA256D0"
			}
		}
	},
	{
		"id": 7,
		"sentTime": 1626111751088,
		"returnTime": 1626111757552,
		"data": {
			"status": "success",
			"data": {
				"deviceAddress": "0x0695CB74Ce06B730e1eB4100Ab9d5a5080E1C44e"
			}
		}
	},
	{
		"id": 8,
		"sentTime": 1626111751088,
		"returnTime": 1626111757553,
		"data": {
			"status": "success",
			"data": {
				"deviceAddress": "0xE256966fd296D59a0B32de031a261005c04705f9"
			}
		}
	},
	{
		"id": 9,
		"sentTime": 1626111751088,
		"returnTime": 1626111757568,
		"data": {
			"status": "success",
			"data": {
				"deviceAddress": "0x21Bf535BaD7aD8Bd768Ef894f3a2cbF2d2364852"
			}
		}
	},
	{
		"id": 10,
		"sentTime": 1626111751089,
		"returnTime": 1626111757576,
		"data": {
			"status": "success",
			"data": {
				"deviceAddress": "0x0Dd124e9b2C38f1AB41f12CF423D7291a4D35831"
			}
		}
	},
	{
		"id": 11,
		"sentTime": 1626111751089,
		"returnTime": 1626111757572,
		"data": {
			"status": "success",
			"data": {
				"deviceAddress": "0x1Df1126a09A4078BDabEFd42f3EcC95CE564D90E"
			}
		}
	},
	{
		"id": 12,
		"sentTime": 1626111751089,
		"returnTime": 1626111757558,
		"data": {
			"status": "success",
			"data": {
				"deviceAddress": "0x18542557eB92e43A7A1b0ee4fA7C54B38bd9495E"
			}
		}
	},
	{
		"id": 13,
		"sentTime": 1626111751089,
		"returnTime": 1626111753251,
		"data": {
			"status": "success",
			"data": {
				"deviceAddress": "0x244817428F0D66fD3a7444F46D003204956D48ed"
			}
		}
	},
	{
		"id": 14,
		"sentTime": 1626111751089,
		"returnTime": 1626111753699,
		"data": {
			"status": "success",
			"data": {
				"deviceAddress": "0x30487976dEc493C7E4F21521475e196e9BD0ABCE"
			}
		}
	},
	{
		"id": 15,
		"sentTime": 1626111751089,
		"returnTime": 1626111757582,
		"data": {
			"status": "success",
			"data": {
				"deviceAddress": "0xAC6566a18cbF927066D41AE1F46719342E48A751"
			}
		}
	},
	{
		"id": 16,
		"sentTime": 1626111751089,
		"returnTime": 1626111757606,
		"data": {
			"status": "success",
			"data": {
				"deviceAddress": "0xFde11F55235a73dDa149cD6AFc267428E62f1691"
			}
		}
	},
	{
		"id": 17,
		"sentTime": 1626111751089,
		"returnTime": 1626111757570,
		"data": {
			"status": "success",
			"data": {
				"deviceAddress": "0x92E9cD561ca2A62D698929e5c579726F798bEFa8"
			}
		}
	},
	{
		"id": 18,
		"sentTime": 1626111751089,
		"returnTime": 1626111757556,
		"data": {
			"status": "success",
			"data": {
				"deviceAddress": "0xD2a925575af70E46FDAc99b019792E2a3aED74d9"
			}
		}
	},
	{
		"id": 19,
		"sentTime": 1626111751089,
		"returnTime": 1626111753250,
		"data": {
			"status": "success",
			"data": {
				"deviceAddress": "0x6A13Cb0dc2b6C384BB0A7383A7700c4715933aE4"
			}
		}
	},
	{
		"id": 20,
		"sentTime": 1626111751089,
		"returnTime": 1626111753251,
		"data": {
			"status": "success",
			"data": {
				"deviceAddress": "0x0a0e32b24Eb1D35c603ab1E7a04c364B7B55dA6D"
			}
		}
	},
	{
		"id": 21,
		"sentTime": 1626111751089,
		"returnTime": 1626111753251,
		"data": {
			"status": "success",
			"data": {
				"deviceAddress": "0x973904Bc505a1740d9A8FAABBE12e3E4d6Fc53E5"
			}
		}
	},
	{
		"id": 22,
		"sentTime": 1626111751089,
		"returnTime": 1626111753700,
		"data": {
			"status": "success",
			"data": {
				"deviceAddress": "0x62A3c5BdA998Bbe726b16633d8Bf05F084A5559d"
			}
		}
	},
	{
		"id": 23,
		"sentTime": 1626111751089,
		"returnTime": 1626111757590,
		"data": {
			"status": "success",
			"data": {
				"deviceAddress": "0x4FC20247B9C4F753cC01628df73f01900BC04ac3"
			}
		}
	},
	{
		"id": 24,
		"sentTime": 1626111751089,
		"returnTime": 1626111757576,
		"data": {
			"status": "success",
			"data": {
				"deviceAddress": "0x821519DdD8Bf091e8535ABba2D3FEba5568e468c"
			}
		}
	},
	{
		"id": 25,
		"sentTime": 1626111751089,
		"returnTime": 1626111757561,
		"data": {
			"status": "success",
			"data": {
				"deviceAddress": "0xeB679E45A69aB6162f7a03F12eaEfefdD97A4c1B"
			}
		}
	},
	{
		"id": 26,
		"sentTime": 1626111751089,
		"returnTime": 1626111757555,
		"data": {
			"status": "success",
			"data": {
				"deviceAddress": "0x95b447Dda1Dbe890ea7907631223F3C0A8Fd11C6"
			}
		}
	},
	{
		"id": 27,
		"sentTime": 1626111751089,
		"returnTime": 1626111753470,
		"data": {
			"status": "success",
			"data": {
				"deviceAddress": "0xEDf2bCCfA7C351651AF07C99d93d2cade834Ea7c"
			}
		}
	},
	{
		"id": 28,
		"sentTime": 1626111751089,
		"returnTime": 1626111757593,
		"data": {
			"status": "success",
			"data": {
				"deviceAddress": "0x9228E216561F89603ad09CC5035992b360602c22"
			}
		}
	},
	{
		"id": 29,
		"sentTime": 1626111751090,
		"returnTime": 1626111757562,
		"data": {
			"status": "success",
			"data": {
				"deviceAddress": "0x6A179E07e7C9471823d9478409EDA6fC4EEdcae5"
			}
		}
	},
	{
		"id": 30,
		"sentTime": 1626111751090,
		"returnTime": 1626111753976,
		"data": {
			"status": "success",
			"data": {
				"deviceAddress": "0x3FA80561B0460C716934301301ec9821ef8ADB6A"
			}
		}
	},
	{
		"id": 31,
		"sentTime": 1626111751090,
		"returnTime": 1626111757593,
		"data": {
			"status": "success",
			"data": {
				"deviceAddress": "0xeB47B0D33104150Eb815d55c0e11644457417B06"
			}
		}
	},
	{
		"id": 32,
		"sentTime": 1626111751090,
		"returnTime": 1626111757608,
		"data": {
			"status": "success",
			"data": {
				"deviceAddress": "0x767449aCAabC8Abb206F1e82c560866b9fCDbEdd"
			}
		}
	},
	{
		"id": 33,
		"sentTime": 1626111751090,
		"returnTime": 1626111757591,
		"data": {
			"status": "success",
			"data": {
				"deviceAddress": "0xCfF1653686693DAB8BA55336182D3C7653380B4a"
			}
		}
	},
	{
		"id": 34,
		"sentTime": 1626111751090,
		"returnTime": 1626111753823,
		"data": {
			"status": "success",
			"data": {
				"deviceAddress": "0x4Df206f17e9B65D1EF7377eB1De92BC032aAEd17"
			}
		}
	},
	{
		"id": 35,
		"sentTime": 1626111751090,
		"returnTime": 1626111757617,
		"data": {
			"status": "success",
			"data": {
				"deviceAddress": "0x7c3260344bd28778eebbAdc0efD1769803E882c7"
			}
		}
	},
	{
		"id": 36,
		"sentTime": 1626111751090,
		"returnTime": 1626111757589,
		"data": {
			"status": "success",
			"data": {
				"deviceAddress": "0xD2A10Acb936a6bE41BA54C431C03CF7Ec3163325"
			}
		}
	},
	{
		"id": 37,
		"sentTime": 1626111751090,
		"returnTime": 1626111757624,
		"data": {
			"status": "success",
			"data": {
				"deviceAddress": "0xc2808624B0Efb7a6102eCf865B13d21ff17EFBCf"
			}
		}
	},
	{
		"id": 38,
		"sentTime": 1626111751090,
		"returnTime": 1626111757601,
		"data": {
			"status": "success",
			"data": {
				"deviceAddress": "0x4Eb483044f77129AF0db8c5Af8df80b5b72ef8cB"
			}
		}
	},
	{
		"id": 39,
		"sentTime": 1626111751090,
		"returnTime": 1626111757620,
		"data": {
			"status": "success",
			"data": {
				"deviceAddress": "0x5a06990b34217552D3897C5110a6877C80C2E819"
			}
		}
	},
	{
		"id": 40,
		"sentTime": 1626111751090,
		"returnTime": 1626111757621,
		"data": {
			"status": "success",
			"data": {
				"deviceAddress": "0xa0fC3e6125260A010DA4e804c6678efe3Dc0B018"
			}
		}
	},
	{
		"id": 41,
		"sentTime": 1626111751090,
		"returnTime": 1626111757600,
		"data": {
			"status": "success",
			"data": {
				"deviceAddress": "0xA6f21E2f77952d11282b03a19e9D8AA75538Ab57"
			}
		}
	},
	{
		"id": 42,
		"sentTime": 1626111751090,
		"returnTime": 1626111757546,
		"data": {
			"status": "success",
			"data": {
				"deviceAddress": "0x930B3BFf64fD27563a3A603d13889f71Ae5931D7"
			}
		}
	},
	{
		"id": 43,
		"sentTime": 1626111751090,
		"returnTime": 1626111757618,
		"data": {
			"status": "success",
			"data": {
				"deviceAddress": "0xad95045d9191b0Ed8Fe71a46a975fEB98DD235E7"
			}
		}
	},
	{
		"id": 44,
		"sentTime": 1626111751090,
		"returnTime": 1626111757607,
		"data": {
			"status": "success",
			"data": {
				"deviceAddress": "0x768eb0f9CBfdE925C410b70ad39c302C6d251C6d"
			}
		}
	},
	{
		"id": 45,
		"sentTime": 1626111751090,
		"returnTime": 1626111757581,
		"data": {
			"status": "success",
			"data": {
				"deviceAddress": "0x7cAbD183d7d4C300878791Ef24a030F76e2436e0"
			}
		}
	},
	{
		"id": 46,
		"sentTime": 1626111751090,
		"returnTime": 1626111757610,
		"data": {
			"status": "success",
			"data": {
				"deviceAddress": "0x1E3C70Be4d42c9b4c33C456cE1124EAaF5303040"
			}
		}
	},
	{
		"id": 47,
		"sentTime": 1626111751090,
		"returnTime": 1626111757619,
		"data": {
			"status": "success",
			"data": {
				"deviceAddress": "0x7DDf529fa97547e3ae286283AfDF978E32a36Ea0"
			}
		}
	},
	{
		"id": 48,
		"sentTime": 1626111751090,
		"returnTime": 1626111757607,
		"data": {
			"status": "success",
			"data": {
				"deviceAddress": "0xCf8b28f513d40145795EfED923012154D64Ef4E1"
			}
		}
	},
	{
		"id": 49,
		"sentTime": 1626111751091,
		"returnTime": 1626111757605,
		"data": {
			"status": "success",
			"data": {
				"deviceAddress": "0x285B3439f3C736bec5114c9db6b27B8967eB9DCC"
			}
		}
	},
	{
		"x": "50",
		"totalTime": 6537,
		"totalRate": 7.64876854826373
	}
]