[
	{
		"id": 0,
		"sentTime": 1626113161851,
		"returnTime": 1626113162623,
		"data": {
			"status": "success",
			"data": {
				"deviceAddress": "0x882b48948444fE889071DDFd49A83DED8069578e"
			}
		}
	},
	{
		"x": "1",
		"totalTime": 772,
		"totalRate": 1.2953367875647668
	}
]